SimonTest.vcd
$date
	Wed Nov 17 22:54:26 2021
$end
$version
	Icarus Verilog
$end
$timescale
	100ps
$end
$scope module SimonTest $end
$var wire 4 ! pattern_leds [3:0] $end
$var wire 3 " mode_leds [2:0] $end
$var reg 1 # clk $end
$var reg 8 $ errors [7:0] $end
$var reg 1 % level $end
$var reg 4 & pattern [3:0] $end
$var reg 1 ' rst $end
$var integer 32 ( idx [31:0] $end
$scope module simon $end
$var wire 1 % level $end
$var wire 4 ) pattern [3:0] $end
$var wire 1 # pclk $end
$var wire 1 ' rst $end
$var wire 1 * uclk $end
$var wire 1 + seq_regld $end
$var wire 1 , seq_countld $end
$var wire 1 - reg_countld $end
$var wire 1 . reg_countclr $end
$var wire 4 / pattern_leds [3:0] $end
$var wire 3 0 mode_leds [2:0] $end
$var wire 1 1 legality $end
$var wire 1 2 led_select $end
$var wire 1 3 full_check $end
$var wire 1 4 correctness $end
$scope module ctrl $end
$var wire 1 * clk $end
$var wire 1 ' rst $end
$var wire 1 1 is_legal $end
$var wire 1 3 is_last_element $end
$var wire 1 4 correct_pattern $end
$var reg 1 2 led_sel $end
$var reg 3 5 mode_leds [2:0] $end
$var reg 2 6 next_state [1:0] $end
$var reg 1 . rcclr $end
$var reg 1 - rcld $end
$var reg 1 , scld $end
$var reg 1 + srld $end
$var reg 2 7 state [1:0] $end
$upscope $end
$scope module dpath $end
$var wire 1 * clk $end
$var wire 1 2 led_sel $end
$var wire 1 % level $end
$var wire 4 8 pattern [3:0] $end
$var wire 1 . rcclr $end
$var wire 1 - rcld $end
$var wire 1 ' reset $end
$var wire 1 , scld $end
$var wire 1 + srld $end
$var wire 3 9 ones_counter [2:0] $end
$var wire 1 : one_one $end
$var wire 4 ; mem_out [3:0] $end
$var wire 1 < last_pos $end
$var wire 1 3 is_last_element $end
$var wire 1 4 correct_pattern $end
$var reg 1 = hard $end
$var reg 1 1 is_legal $end
$var reg 4 > pattern_leds [3:0] $end
$var reg 6 ? reg_count [5:0] $end
$var reg 6 @ seq_count [5:0] $end
$scope module mem $end
$var wire 1 * clk $end
$var wire 6 A r_addr [5:0] $end
$var wire 4 B r_data [3:0] $end
$var wire 1 ' rst $end
$var wire 6 C w_addr [5:0] $end
$var wire 4 D w_data [3:0] $end
$var wire 1 + w_en $end
$scope begin wport[0] $end
$upscope $end
$scope begin wport[1] $end
$upscope $end
$scope begin wport[2] $end
$upscope $end
$scope begin wport[3] $end
$upscope $end
$scope begin wport[4] $end
$upscope $end
$scope begin wport[5] $end
$upscope $end
$scope begin wport[6] $end
$upscope $end
$scope begin wport[7] $end
$upscope $end
$scope begin wport[8] $end
$upscope $end
$scope begin wport[9] $end
$upscope $end
$scope begin wport[10] $end
$upscope $end
$scope begin wport[11] $end
$upscope $end
$scope begin wport[12] $end
$upscope $end
$scope begin wport[13] $end
$upscope $end
$scope begin wport[14] $end
$upscope $end
$scope begin wport[15] $end
$upscope $end
$scope begin wport[16] $end
$upscope $end
$scope begin wport[17] $end
$upscope $end
$scope begin wport[18] $end
$upscope $end
$scope begin wport[19] $end
$upscope $end
$scope begin wport[20] $end
$upscope $end
$scope begin wport[21] $end
$upscope $end
$scope begin wport[22] $end
$upscope $end
$scope begin wport[23] $end
$upscope $end
$scope begin wport[24] $end
$upscope $end
$scope begin wport[25] $end
$upscope $end
$scope begin wport[26] $end
$upscope $end
$scope begin wport[27] $end
$upscope $end
$scope begin wport[28] $end
$upscope $end
$scope begin wport[29] $end
$upscope $end
$scope begin wport[30] $end
$upscope $end
$scope begin wport[31] $end
$upscope $end
$scope begin wport[32] $end
$upscope $end
$scope begin wport[33] $end
$upscope $end
$scope begin wport[34] $end
$upscope $end
$scope begin wport[35] $end
$upscope $end
$scope begin wport[36] $end
$upscope $end
$scope begin wport[37] $end
$upscope $end
$scope begin wport[38] $end
$upscope $end
$scope begin wport[39] $end
$upscope $end
$scope begin wport[40] $end
$upscope $end
$scope begin wport[41] $end
$upscope $end
$scope begin wport[42] $end
$upscope $end
$scope begin wport[43] $end
$upscope $end
$scope begin wport[44] $end
$upscope $end
$scope begin wport[45] $end
$upscope $end
$scope begin wport[46] $end
$upscope $end
$scope begin wport[47] $end
$upscope $end
$scope begin wport[48] $end
$upscope $end
$scope begin wport[49] $end
$upscope $end
$scope begin wport[50] $end
$upscope $end
$scope begin wport[51] $end
$upscope $end
$scope begin wport[52] $end
$upscope $end
$scope begin wport[53] $end
$upscope $end
$scope begin wport[54] $end
$upscope $end
$scope begin wport[55] $end
$upscope $end
$scope begin wport[56] $end
$upscope $end
$scope begin wport[57] $end
$upscope $end
$scope begin wport[58] $end
$upscope $end
$scope begin wport[59] $end
$upscope $end
$scope begin wport[60] $end
$upscope $end
$scope begin wport[61] $end
$upscope $end
$scope begin wport[62] $end
$upscope $end
$scope begin wport[63] $end
$upscope $end
$upscope $end
$upscope $end
$upscope $end
$upscope $end
$scope module SimonTest $end
$scope module simon $end
$scope module dpath $end
$scope module mem $end
$var reg 4 E \mem[0] [3:0] $end
$upscope $end
$upscope $end
$upscope $end
$upscope $end
$scope module SimonTest $end
$scope module simon $end
$scope module dpath $end
$scope module mem $end
$var reg 4 F \mem[1] [3:0] $end
$upscope $end
$upscope $end
$upscope $end
$upscope $end
$scope module SimonTest $end
$scope module simon $end
$scope module dpath $end
$scope module mem $end
$var reg 4 G \mem[2] [3:0] $end
$upscope $end
$upscope $end
$upscope $end
$upscope $end
$scope module SimonTest $end
$scope module simon $end
$scope module dpath $end
$scope module mem $end
$var reg 4 H \mem[3] [3:0] $end
$upscope $end
$upscope $end
$upscope $end
$upscope $end
$scope module SimonTest $end
$scope module simon $end
$scope module dpath $end
$scope module mem $end
$var reg 4 I \mem[4] [3:0] $end
$upscope $end
$upscope $end
$upscope $end
$upscope $end
$scope module SimonTest $end
$scope module simon $end
$scope module dpath $end
$scope module mem $end
$var reg 4 J \mem[5] [3:0] $end
$upscope $end
$upscope $end
$upscope $end
$upscope $end
$scope module SimonTest $end
$scope module simon $end
$scope module dpath $end
$scope module mem $end
$var reg 4 K \mem[6] [3:0] $end
$upscope $end
$upscope $end
$upscope $end
$upscope $end
$scope module SimonTest $end
$scope module simon $end
$scope module dpath $end
$scope module mem $end
$var reg 4 L \mem[7] [3:0] $end
$upscope $end
$upscope $end
$upscope $end
$upscope $end
$scope module SimonTest $end
$scope module simon $end
$scope module dpath $end
$scope module mem $end
$var reg 4 M \mem[8] [3:0] $end
$upscope $end
$upscope $end
$upscope $end
$upscope $end
$scope module SimonTest $end
$scope module simon $end
$scope module dpath $end
$scope module mem $end
$var reg 4 N \mem[9] [3:0] $end
$upscope $end
$upscope $end
$upscope $end
$upscope $end
$scope module SimonTest $end
$scope module simon $end
$scope module dpath $end
$scope module mem $end
$var reg 4 O \mem[10] [3:0] $end
$upscope $end
$upscope $end
$upscope $end
$upscope $end
$scope module SimonTest $end
$scope module simon $end
$scope module dpath $end
$scope module mem $end
$var reg 4 P \mem[11] [3:0] $end
$upscope $end
$upscope $end
$upscope $end
$upscope $end
$scope module SimonTest $end
$scope module simon $end
$scope module dpath $end
$scope module mem $end
$var reg 4 Q \mem[12] [3:0] $end
$upscope $end
$upscope $end
$upscope $end
$upscope $end
$scope module SimonTest $end
$scope module simon $end
$scope module dpath $end
$scope module mem $end
$var reg 4 R \mem[13] [3:0] $end
$upscope $end
$upscope $end
$upscope $end
$upscope $end
$scope module SimonTest $end
$scope module simon $end
$scope module dpath $end
$scope module mem $end
$var reg 4 S \mem[14] [3:0] $end
$upscope $end
$upscope $end
$upscope $end
$upscope $end
$scope module SimonTest $end
$scope module simon $end
$scope module dpath $end
$scope module mem $end
$var reg 4 T \mem[15] [3:0] $end
$upscope $end
$upscope $end
$upscope $end
$upscope $end
$scope module SimonTest $end
$scope module simon $end
$scope module dpath $end
$scope module mem $end
$var reg 4 U \mem[16] [3:0] $end
$upscope $end
$upscope $end
$upscope $end
$upscope $end
$scope module SimonTest $end
$scope module simon $end
$scope module dpath $end
$scope module mem $end
$var reg 4 V \mem[17] [3:0] $end
$upscope $end
$upscope $end
$upscope $end
$upscope $end
$scope module SimonTest $end
$scope module simon $end
$scope module dpath $end
$scope module mem $end
$var reg 4 W \mem[18] [3:0] $end
$upscope $end
$upscope $end
$upscope $end
$upscope $end
$scope module SimonTest $end
$scope module simon $end
$scope module dpath $end
$scope module mem $end
$var reg 4 X \mem[19] [3:0] $end
$upscope $end
$upscope $end
$upscope $end
$upscope $end
$scope module SimonTest $end
$scope module simon $end
$scope module dpath $end
$scope module mem $end
$var reg 4 Y \mem[20] [3:0] $end
$upscope $end
$upscope $end
$upscope $end
$upscope $end
$scope module SimonTest $end
$scope module simon $end
$scope module dpath $end
$scope module mem $end
$var reg 4 Z \mem[21] [3:0] $end
$upscope $end
$upscope $end
$upscope $end
$upscope $end
$scope module SimonTest $end
$scope module simon $end
$scope module dpath $end
$scope module mem $end
$var reg 4 [ \mem[22] [3:0] $end
$upscope $end
$upscope $end
$upscope $end
$upscope $end
$scope module SimonTest $end
$scope module simon $end
$scope module dpath $end
$scope module mem $end
$var reg 4 \ \mem[23] [3:0] $end
$upscope $end
$upscope $end
$upscope $end
$upscope $end
$scope module SimonTest $end
$scope module simon $end
$scope module dpath $end
$scope module mem $end
$var reg 4 ] \mem[24] [3:0] $end
$upscope $end
$upscope $end
$upscope $end
$upscope $end
$scope module SimonTest $end
$scope module simon $end
$scope module dpath $end
$scope module mem $end
$var reg 4 ^ \mem[25] [3:0] $end
$upscope $end
$upscope $end
$upscope $end
$upscope $end
$scope module SimonTest $end
$scope module simon $end
$scope module dpath $end
$scope module mem $end
$var reg 4 _ \mem[26] [3:0] $end
$upscope $end
$upscope $end
$upscope $end
$upscope $end
$scope module SimonTest $end
$scope module simon $end
$scope module dpath $end
$scope module mem $end
$var reg 4 ` \mem[27] [3:0] $end
$upscope $end
$upscope $end
$upscope $end
$upscope $end
$scope module SimonTest $end
$scope module simon $end
$scope module dpath $end
$scope module mem $end
$var reg 4 a \mem[28] [3:0] $end
$upscope $end
$upscope $end
$upscope $end
$upscope $end
$scope module SimonTest $end
$scope module simon $end
$scope module dpath $end
$scope module mem $end
$var reg 4 b \mem[29] [3:0] $end
$upscope $end
$upscope $end
$upscope $end
$upscope $end
$scope module SimonTest $end
$scope module simon $end
$scope module dpath $end
$scope module mem $end
$var reg 4 c \mem[30] [3:0] $end
$upscope $end
$upscope $end
$upscope $end
$upscope $end
$scope module SimonTest $end
$scope module simon $end
$scope module dpath $end
$scope module mem $end
$var reg 4 d \mem[31] [3:0] $end
$upscope $end
$upscope $end
$upscope $end
$upscope $end
$scope module SimonTest $end
$scope module simon $end
$scope module dpath $end
$scope module mem $end
$var reg 4 e \mem[32] [3:0] $end
$upscope $end
$upscope $end
$upscope $end
$upscope $end
$scope module SimonTest $end
$scope module simon $end
$scope module dpath $end
$scope module mem $end
$var reg 4 f \mem[33] [3:0] $end
$upscope $end
$upscope $end
$upscope $end
$upscope $end
$scope module SimonTest $end
$scope module simon $end
$scope module dpath $end
$scope module mem $end
$var reg 4 g \mem[34] [3:0] $end
$upscope $end
$upscope $end
$upscope $end
$upscope $end
$scope module SimonTest $end
$scope module simon $end
$scope module dpath $end
$scope module mem $end
$var reg 4 h \mem[35] [3:0] $end
$upscope $end
$upscope $end
$upscope $end
$upscope $end
$scope module SimonTest $end
$scope module simon $end
$scope module dpath $end
$scope module mem $end
$var reg 4 i \mem[36] [3:0] $end
$upscope $end
$upscope $end
$upscope $end
$upscope $end
$scope module SimonTest $end
$scope module simon $end
$scope module dpath $end
$scope module mem $end
$var reg 4 j \mem[37] [3:0] $end
$upscope $end
$upscope $end
$upscope $end
$upscope $end
$scope module SimonTest $end
$scope module simon $end
$scope module dpath $end
$scope module mem $end
$var reg 4 k \mem[38] [3:0] $end
$upscope $end
$upscope $end
$upscope $end
$upscope $end
$scope module SimonTest $end
$scope module simon $end
$scope module dpath $end
$scope module mem $end
$var reg 4 l \mem[39] [3:0] $end
$upscope $end
$upscope $end
$upscope $end
$upscope $end
$scope module SimonTest $end
$scope module simon $end
$scope module dpath $end
$scope module mem $end
$var reg 4 m \mem[40] [3:0] $end
$upscope $end
$upscope $end
$upscope $end
$upscope $end
$scope module SimonTest $end
$scope module simon $end
$scope module dpath $end
$scope module mem $end
$var reg 4 n \mem[41] [3:0] $end
$upscope $end
$upscope $end
$upscope $end
$upscope $end
$scope module SimonTest $end
$scope module simon $end
$scope module dpath $end
$scope module mem $end
$var reg 4 o \mem[42] [3:0] $end
$upscope $end
$upscope $end
$upscope $end
$upscope $end
$scope module SimonTest $end
$scope module simon $end
$scope module dpath $end
$scope module mem $end
$var reg 4 p \mem[43] [3:0] $end
$upscope $end
$upscope $end
$upscope $end
$upscope $end
$scope module SimonTest $end
$scope module simon $end
$scope module dpath $end
$scope module mem $end
$var reg 4 q \mem[44] [3:0] $end
$upscope $end
$upscope $end
$upscope $end
$upscope $end
$scope module SimonTest $end
$scope module simon $end
$scope module dpath $end
$scope module mem $end
$var reg 4 r \mem[45] [3:0] $end
$upscope $end
$upscope $end
$upscope $end
$upscope $end
$scope module SimonTest $end
$scope module simon $end
$scope module dpath $end
$scope module mem $end
$var reg 4 s \mem[46] [3:0] $end
$upscope $end
$upscope $end
$upscope $end
$upscope $end
$scope module SimonTest $end
$scope module simon $end
$scope module dpath $end
$scope module mem $end
$var reg 4 t \mem[47] [3:0] $end
$upscope $end
$upscope $end
$upscope $end
$upscope $end
$scope module SimonTest $end
$scope module simon $end
$scope module dpath $end
$scope module mem $end
$var reg 4 u \mem[48] [3:0] $end
$upscope $end
$upscope $end
$upscope $end
$upscope $end
$scope module SimonTest $end
$scope module simon $end
$scope module dpath $end
$scope module mem $end
$var reg 4 v \mem[49] [3:0] $end
$upscope $end
$upscope $end
$upscope $end
$upscope $end
$scope module SimonTest $end
$scope module simon $end
$scope module dpath $end
$scope module mem $end
$var reg 4 w \mem[50] [3:0] $end
$upscope $end
$upscope $end
$upscope $end
$upscope $end
$scope module SimonTest $end
$scope module simon $end
$scope module dpath $end
$scope module mem $end
$var reg 4 x \mem[51] [3:0] $end
$upscope $end
$upscope $end
$upscope $end
$upscope $end
$scope module SimonTest $end
$scope module simon $end
$scope module dpath $end
$scope module mem $end
$var reg 4 y \mem[52] [3:0] $end
$upscope $end
$upscope $end
$upscope $end
$upscope $end
$scope module SimonTest $end
$scope module simon $end
$scope module dpath $end
$scope module mem $end
$var reg 4 z \mem[53] [3:0] $end
$upscope $end
$upscope $end
$upscope $end
$upscope $end
$scope module SimonTest $end
$scope module simon $end
$scope module dpath $end
$scope module mem $end
$var reg 4 { \mem[54] [3:0] $end
$upscope $end
$upscope $end
$upscope $end
$upscope $end
$scope module SimonTest $end
$scope module simon $end
$scope module dpath $end
$scope module mem $end
$var reg 4 | \mem[55] [3:0] $end
$upscope $end
$upscope $end
$upscope $end
$upscope $end
$scope module SimonTest $end
$scope module simon $end
$scope module dpath $end
$scope module mem $end
$var reg 4 } \mem[56] [3:0] $end
$upscope $end
$upscope $end
$upscope $end
$upscope $end
$scope module SimonTest $end
$scope module simon $end
$scope module dpath $end
$scope module mem $end
$var reg 4 ~ \mem[57] [3:0] $end
$upscope $end
$upscope $end
$upscope $end
$upscope $end
$scope module SimonTest $end
$scope module simon $end
$scope module dpath $end
$scope module mem $end
$var reg 4 !" \mem[58] [3:0] $end
$upscope $end
$upscope $end
$upscope $end
$upscope $end
$scope module SimonTest $end
$scope module simon $end
$scope module dpath $end
$scope module mem $end
$var reg 4 "" \mem[59] [3:0] $end
$upscope $end
$upscope $end
$upscope $end
$upscope $end
$scope module SimonTest $end
$scope module simon $end
$scope module dpath $end
$scope module mem $end
$var reg 4 #" \mem[60] [3:0] $end
$upscope $end
$upscope $end
$upscope $end
$upscope $end
$scope module SimonTest $end
$scope module simon $end
$scope module dpath $end
$scope module mem $end
$var reg 4 $" \mem[61] [3:0] $end
$upscope $end
$upscope $end
$upscope $end
$upscope $end
$scope module SimonTest $end
$scope module simon $end
$scope module dpath $end
$scope module mem $end
$var reg 4 %" \mem[62] [3:0] $end
$upscope $end
$upscope $end
$upscope $end
$upscope $end
$scope module SimonTest $end
$scope module simon $end
$scope module dpath $end
$scope module mem $end
$var reg 4 &" \mem[63] [3:0] $end
$upscope $end
$upscope $end
$upscope $end
$upscope $end
$enddefinitions $end
#0
$dumpvars
bx &"
bx %"
bx $"
bx #"
bx ""
bx !"
bx ~
bx }
bx |
bx {
bx z
bx y
bx x
bx w
bx v
bx u
bx t
bx s
bx r
bx q
bx p
bx o
bx n
bx m
bx l
bx k
bx j
bx i
bx h
bx g
bx f
bx e
bx d
bx c
bx b
bx a
bx `
bx _
bx ^
bx ]
bx \
bx [
bx Z
bx Y
bx X
bx W
bx V
bx U
bx T
bx S
bx R
bx Q
bx P
bx O
bx N
bx M
bx L
bx K
bx J
bx I
bx H
bx G
bx F
bx E
b0 D
bx C
bx B
bx A
bx @
bx ?
bx >
x=
x<
bx ;
0:
b0 9
b0 8
bx 7
b0 6
bx 5
x4
x3
02
01
bx 0
bx /
0.
0-
0,
0+
0*
b0 )
b1000000 (
0'
b0 &
1%
b0 $
0#
bx "
bx !
$end
#10
1'
#30
b1 6
1,
1.
1+
11
b0 !
b0 /
b0 >
1<
b1 "
b1 0
b1 5
12
b0 E
b0 F
b0 G
b0 H
b0 I
b0 J
b0 K
b0 L
b0 M
b0 N
b0 O
b0 P
b0 Q
b0 R
b0 S
b0 T
b0 U
b0 V
b0 W
b0 X
b0 Y
b0 Z
b0 [
b0 \
b0 ]
b0 ^
b0 _
b0 `
b0 a
b0 b
b0 c
b0 d
b0 e
b0 f
b0 g
b0 h
b0 i
b0 j
b0 k
b0 l
b0 m
b0 n
b0 o
b0 p
b0 q
b0 r
b0 s
b0 t
b0 u
b0 v
b0 w
b0 x
b0 y
b0 z
b0 {
b0 |
b0 }
b0 ~
b0 !"
b0 ""
b0 #"
b0 $"
b0 %"
b0 &"
1=
b0 @
b0 C
b0 7
1*
1#
#40
0*
0#
#60
0'
#80
0:
b10 9
b1010 !
b1010 /
b1010 >
b1010 &
b1010 )
b1010 8
b1010 D
#100
b10 "
b10 0
b10 5
02
0+
1.
0,
b10 6
0<
b1 7
13
14
b1010 ;
b1010 B
b0 ?
b0 A
b1 @
b1 C
b1010 E
1*
1#
#110
0*
0#
#130
b10 6
1.
1:
b1 9
04
b100 &
b100 )
b100 8
b100 D
#150
b100 !
b100 /
b100 >
b100 "
b100 0
b100 5
12
1.
b11 6
b10 7
1*
1#
#160
0*
0#
#180
b0 6
1-
12
0.
0:
b10 9
b1010 !
b1010 /
b1010 >
14
b1010 &
b1010 )
b1010 8
b1010 D
#200
b1 "
b1 0
b1 5
1,
1.
1+
12
0-
b1 6
b1010 !
b1010 /
b1010 >
b0 7
03
04
b0 ;
b0 B
b1 ?
b1 A
1*
1#
#210
0*
0#
#230
0%
#250
0:
b10 9
b1100 !
b1100 /
b1100 >
b1100 &
b1100 )
b1100 8
b1100 D
#270
1-
b1010 !
b1010 /
b1010 >
1<
b1 6
b10 "
b10 0
b10 5
02
0+
0.
0,
b1100 F
03
b1010 ;
b1010 B
b0 ?
b0 A
b10 @
b10 C
b1 7
1*
1#
#280
0*
0#
#300
1:
b1 9
b10 &
b10 )
b10 8
b10 D
#320
b10 6
1.
0-
b1100 !
b1100 /
b1100 >
13
b1100 ;
b1100 B
b1 ?
b1 A
1*
1#
#330
0*
0#
#350
b10 !
b10 /
b10 >
b100 "
b100 0
b100 5
12
1.
b11 6
03
b1010 ;
b1010 B
b0 ?
b0 A
b10 7
1*
1#
#360
0*
0#
#380
b10 6
1-
12
0.
0:
b10 9
b1010 !
b1010 /
b1010 >
14
b1010 &
b1010 )
b1010 8
b1010 D
#400
1.
12
0-
b11 6
b1010 !
b1010 /
b1010 >
13
04
b1100 ;
b1100 B
b1 ?
b1 A
1*
1#
#410
0*
0#
#430
b10 9
b110 !
b110 /
b110 >
b110 &
b110 )
b110 8
b110 D
#450
b1010 !
b1010 /
b1010 >
b11 6
b111 "
b111 0
b111 5
1-
02
0.
03
b1010 ;
b1010 B
b0 ?
b0 A
b11 7
1*
1#
#460
0*
0#
#480
b100 9
b1111 &
b1111 )
b1111 8
b1111 D
#500
1.
0-
b11 6
b1100 !
b1100 /
b1100 >
13
b1100 ;
b1100 B
b1 ?
b1 A
1*
1#
#510
0*
0#
#530
b11 6
1-
0.
b1010 !
b1010 /
b1010 >
03
b1010 ;
b1010 B
b0 ?
b0 A
1*
1#
