SimonDatapathTest.vcd
$date
	Wed Nov 17 21:21:24 2021
$end
$version
	Icarus Verilog
$end
$timescale
	100ps
$end
$scope module SimonDatapathTest $end
$var wire 4 ! pattern_leds [3:0] $end
$var wire 1 " is_legal $end
$var wire 1 # is_last_element $end
$var wire 1 $ correct_pattern $end
$var reg 1 % clk $end
$var reg 8 & errors [7:0] $end
$var reg 1 ' led_sel $end
$var reg 1 ( level $end
$var reg 4 ) pattern [3:0] $end
$var reg 1 * rcclr $end
$var reg 1 + rcld $end
$var reg 1 , reset $end
$var reg 1 - scld $end
$var reg 1 . srld $end
$var integer 32 / idx [31:0] $end
$scope module dpath $end
$var wire 1 % clk $end
$var wire 1 ' led_sel $end
$var wire 1 ( level $end
$var wire 4 0 pattern [3:0] $end
$var wire 1 * rcclr $end
$var wire 1 + rcld $end
$var wire 1 , reset $end
$var wire 1 - scld $end
$var wire 1 . srld $end
$var wire 3 1 ones_counter [2:0] $end
$var wire 1 2 one_one $end
$var wire 4 3 mem_out [3:0] $end
$var wire 1 4 last_pos $end
$var wire 1 # is_last_element $end
$var wire 1 $ correct_pattern $end
$var reg 1 5 hard $end
$var reg 1 " is_legal $end
$var reg 4 6 pattern_leds [3:0] $end
$var reg 6 7 reg_count [5:0] $end
$var reg 6 8 seq_count [5:0] $end
$scope module mem $end
$var wire 1 % clk $end
$var wire 6 9 r_addr [5:0] $end
$var wire 4 : r_data [3:0] $end
$var wire 1 , rst $end
$var wire 6 ; w_addr [5:0] $end
$var wire 4 < w_data [3:0] $end
$var wire 1 . w_en $end
$scope begin wport[0] $end
$upscope $end
$scope begin wport[1] $end
$upscope $end
$scope begin wport[2] $end
$upscope $end
$scope begin wport[3] $end
$upscope $end
$scope begin wport[4] $end
$upscope $end
$scope begin wport[5] $end
$upscope $end
$scope begin wport[6] $end
$upscope $end
$scope begin wport[7] $end
$upscope $end
$scope begin wport[8] $end
$upscope $end
$scope begin wport[9] $end
$upscope $end
$scope begin wport[10] $end
$upscope $end
$scope begin wport[11] $end
$upscope $end
$scope begin wport[12] $end
$upscope $end
$scope begin wport[13] $end
$upscope $end
$scope begin wport[14] $end
$upscope $end
$scope begin wport[15] $end
$upscope $end
$scope begin wport[16] $end
$upscope $end
$scope begin wport[17] $end
$upscope $end
$scope begin wport[18] $end
$upscope $end
$scope begin wport[19] $end
$upscope $end
$scope begin wport[20] $end
$upscope $end
$scope begin wport[21] $end
$upscope $end
$scope begin wport[22] $end
$upscope $end
$scope begin wport[23] $end
$upscope $end
$scope begin wport[24] $end
$upscope $end
$scope begin wport[25] $end
$upscope $end
$scope begin wport[26] $end
$upscope $end
$scope begin wport[27] $end
$upscope $end
$scope begin wport[28] $end
$upscope $end
$scope begin wport[29] $end
$upscope $end
$scope begin wport[30] $end
$upscope $end
$scope begin wport[31] $end
$upscope $end
$scope begin wport[32] $end
$upscope $end
$scope begin wport[33] $end
$upscope $end
$scope begin wport[34] $end
$upscope $end
$scope begin wport[35] $end
$upscope $end
$scope begin wport[36] $end
$upscope $end
$scope begin wport[37] $end
$upscope $end
$scope begin wport[38] $end
$upscope $end
$scope begin wport[39] $end
$upscope $end
$scope begin wport[40] $end
$upscope $end
$scope begin wport[41] $end
$upscope $end
$scope begin wport[42] $end
$upscope $end
$scope begin wport[43] $end
$upscope $end
$scope begin wport[44] $end
$upscope $end
$scope begin wport[45] $end
$upscope $end
$scope begin wport[46] $end
$upscope $end
$scope begin wport[47] $end
$upscope $end
$scope begin wport[48] $end
$upscope $end
$scope begin wport[49] $end
$upscope $end
$scope begin wport[50] $end
$upscope $end
$scope begin wport[51] $end
$upscope $end
$scope begin wport[52] $end
$upscope $end
$scope begin wport[53] $end
$upscope $end
$scope begin wport[54] $end
$upscope $end
$scope begin wport[55] $end
$upscope $end
$scope begin wport[56] $end
$upscope $end
$scope begin wport[57] $end
$upscope $end
$scope begin wport[58] $end
$upscope $end
$scope begin wport[59] $end
$upscope $end
$scope begin wport[60] $end
$upscope $end
$scope begin wport[61] $end
$upscope $end
$scope begin wport[62] $end
$upscope $end
$scope begin wport[63] $end
$upscope $end
$upscope $end
$upscope $end
$upscope $end
$scope module SimonDatapathTest $end
$scope module dpath $end
$scope module mem $end
$var reg 4 = \mem[0] [3:0] $end
$upscope $end
$upscope $end
$upscope $end
$scope module SimonDatapathTest $end
$scope module dpath $end
$scope module mem $end
$var reg 4 > \mem[1] [3:0] $end
$upscope $end
$upscope $end
$upscope $end
$scope module SimonDatapathTest $end
$scope module dpath $end
$scope module mem $end
$var reg 4 ? \mem[2] [3:0] $end
$upscope $end
$upscope $end
$upscope $end
$scope module SimonDatapathTest $end
$scope module dpath $end
$scope module mem $end
$var reg 4 @ \mem[3] [3:0] $end
$upscope $end
$upscope $end
$upscope $end
$scope module SimonDatapathTest $end
$scope module dpath $end
$scope module mem $end
$var reg 4 A \mem[4] [3:0] $end
$upscope $end
$upscope $end
$upscope $end
$scope module SimonDatapathTest $end
$scope module dpath $end
$scope module mem $end
$var reg 4 B \mem[5] [3:0] $end
$upscope $end
$upscope $end
$upscope $end
$scope module SimonDatapathTest $end
$scope module dpath $end
$scope module mem $end
$var reg 4 C \mem[6] [3:0] $end
$upscope $end
$upscope $end
$upscope $end
$scope module SimonDatapathTest $end
$scope module dpath $end
$scope module mem $end
$var reg 4 D \mem[7] [3:0] $end
$upscope $end
$upscope $end
$upscope $end
$scope module SimonDatapathTest $end
$scope module dpath $end
$scope module mem $end
$var reg 4 E \mem[8] [3:0] $end
$upscope $end
$upscope $end
$upscope $end
$scope module SimonDatapathTest $end
$scope module dpath $end
$scope module mem $end
$var reg 4 F \mem[9] [3:0] $end
$upscope $end
$upscope $end
$upscope $end
$scope module SimonDatapathTest $end
$scope module dpath $end
$scope module mem $end
$var reg 4 G \mem[10] [3:0] $end
$upscope $end
$upscope $end
$upscope $end
$scope module SimonDatapathTest $end
$scope module dpath $end
$scope module mem $end
$var reg 4 H \mem[11] [3:0] $end
$upscope $end
$upscope $end
$upscope $end
$scope module SimonDatapathTest $end
$scope module dpath $end
$scope module mem $end
$var reg 4 I \mem[12] [3:0] $end
$upscope $end
$upscope $end
$upscope $end
$scope module SimonDatapathTest $end
$scope module dpath $end
$scope module mem $end
$var reg 4 J \mem[13] [3:0] $end
$upscope $end
$upscope $end
$upscope $end
$scope module SimonDatapathTest $end
$scope module dpath $end
$scope module mem $end
$var reg 4 K \mem[14] [3:0] $end
$upscope $end
$upscope $end
$upscope $end
$scope module SimonDatapathTest $end
$scope module dpath $end
$scope module mem $end
$var reg 4 L \mem[15] [3:0] $end
$upscope $end
$upscope $end
$upscope $end
$scope module SimonDatapathTest $end
$scope module dpath $end
$scope module mem $end
$var reg 4 M \mem[16] [3:0] $end
$upscope $end
$upscope $end
$upscope $end
$scope module SimonDatapathTest $end
$scope module dpath $end
$scope module mem $end
$var reg 4 N \mem[17] [3:0] $end
$upscope $end
$upscope $end
$upscope $end
$scope module SimonDatapathTest $end
$scope module dpath $end
$scope module mem $end
$var reg 4 O \mem[18] [3:0] $end
$upscope $end
$upscope $end
$upscope $end
$scope module SimonDatapathTest $end
$scope module dpath $end
$scope module mem $end
$var reg 4 P \mem[19] [3:0] $end
$upscope $end
$upscope $end
$upscope $end
$scope module SimonDatapathTest $end
$scope module dpath $end
$scope module mem $end
$var reg 4 Q \mem[20] [3:0] $end
$upscope $end
$upscope $end
$upscope $end
$scope module SimonDatapathTest $end
$scope module dpath $end
$scope module mem $end
$var reg 4 R \mem[21] [3:0] $end
$upscope $end
$upscope $end
$upscope $end
$scope module SimonDatapathTest $end
$scope module dpath $end
$scope module mem $end
$var reg 4 S \mem[22] [3:0] $end
$upscope $end
$upscope $end
$upscope $end
$scope module SimonDatapathTest $end
$scope module dpath $end
$scope module mem $end
$var reg 4 T \mem[23] [3:0] $end
$upscope $end
$upscope $end
$upscope $end
$scope module SimonDatapathTest $end
$scope module dpath $end
$scope module mem $end
$var reg 4 U \mem[24] [3:0] $end
$upscope $end
$upscope $end
$upscope $end
$scope module SimonDatapathTest $end
$scope module dpath $end
$scope module mem $end
$var reg 4 V \mem[25] [3:0] $end
$upscope $end
$upscope $end
$upscope $end
$scope module SimonDatapathTest $end
$scope module dpath $end
$scope module mem $end
$var reg 4 W \mem[26] [3:0] $end
$upscope $end
$upscope $end
$upscope $end
$scope module SimonDatapathTest $end
$scope module dpath $end
$scope module mem $end
$var reg 4 X \mem[27] [3:0] $end
$upscope $end
$upscope $end
$upscope $end
$scope module SimonDatapathTest $end
$scope module dpath $end
$scope module mem $end
$var reg 4 Y \mem[28] [3:0] $end
$upscope $end
$upscope $end
$upscope $end
$scope module SimonDatapathTest $end
$scope module dpath $end
$scope module mem $end
$var reg 4 Z \mem[29] [3:0] $end
$upscope $end
$upscope $end
$upscope $end
$scope module SimonDatapathTest $end
$scope module dpath $end
$scope module mem $end
$var reg 4 [ \mem[30] [3:0] $end
$upscope $end
$upscope $end
$upscope $end
$scope module SimonDatapathTest $end
$scope module dpath $end
$scope module mem $end
$var reg 4 \ \mem[31] [3:0] $end
$upscope $end
$upscope $end
$upscope $end
$scope module SimonDatapathTest $end
$scope module dpath $end
$scope module mem $end
$var reg 4 ] \mem[32] [3:0] $end
$upscope $end
$upscope $end
$upscope $end
$scope module SimonDatapathTest $end
$scope module dpath $end
$scope module mem $end
$var reg 4 ^ \mem[33] [3:0] $end
$upscope $end
$upscope $end
$upscope $end
$scope module SimonDatapathTest $end
$scope module dpath $end
$scope module mem $end
$var reg 4 _ \mem[34] [3:0] $end
$upscope $end
$upscope $end
$upscope $end
$scope module SimonDatapathTest $end
$scope module dpath $end
$scope module mem $end
$var reg 4 ` \mem[35] [3:0] $end
$upscope $end
$upscope $end
$upscope $end
$scope module SimonDatapathTest $end
$scope module dpath $end
$scope module mem $end
$var reg 4 a \mem[36] [3:0] $end
$upscope $end
$upscope $end
$upscope $end
$scope module SimonDatapathTest $end
$scope module dpath $end
$scope module mem $end
$var reg 4 b \mem[37] [3:0] $end
$upscope $end
$upscope $end
$upscope $end
$scope module SimonDatapathTest $end
$scope module dpath $end
$scope module mem $end
$var reg 4 c \mem[38] [3:0] $end
$upscope $end
$upscope $end
$upscope $end
$scope module SimonDatapathTest $end
$scope module dpath $end
$scope module mem $end
$var reg 4 d \mem[39] [3:0] $end
$upscope $end
$upscope $end
$upscope $end
$scope module SimonDatapathTest $end
$scope module dpath $end
$scope module mem $end
$var reg 4 e \mem[40] [3:0] $end
$upscope $end
$upscope $end
$upscope $end
$scope module SimonDatapathTest $end
$scope module dpath $end
$scope module mem $end
$var reg 4 f \mem[41] [3:0] $end
$upscope $end
$upscope $end
$upscope $end
$scope module SimonDatapathTest $end
$scope module dpath $end
$scope module mem $end
$var reg 4 g \mem[42] [3:0] $end
$upscope $end
$upscope $end
$upscope $end
$scope module SimonDatapathTest $end
$scope module dpath $end
$scope module mem $end
$var reg 4 h \mem[43] [3:0] $end
$upscope $end
$upscope $end
$upscope $end
$scope module SimonDatapathTest $end
$scope module dpath $end
$scope module mem $end
$var reg 4 i \mem[44] [3:0] $end
$upscope $end
$upscope $end
$upscope $end
$scope module SimonDatapathTest $end
$scope module dpath $end
$scope module mem $end
$var reg 4 j \mem[45] [3:0] $end
$upscope $end
$upscope $end
$upscope $end
$scope module SimonDatapathTest $end
$scope module dpath $end
$scope module mem $end
$var reg 4 k \mem[46] [3:0] $end
$upscope $end
$upscope $end
$upscope $end
$scope module SimonDatapathTest $end
$scope module dpath $end
$scope module mem $end
$var reg 4 l \mem[47] [3:0] $end
$upscope $end
$upscope $end
$upscope $end
$scope module SimonDatapathTest $end
$scope module dpath $end
$scope module mem $end
$var reg 4 m \mem[48] [3:0] $end
$upscope $end
$upscope $end
$upscope $end
$scope module SimonDatapathTest $end
$scope module dpath $end
$scope module mem $end
$var reg 4 n \mem[49] [3:0] $end
$upscope $end
$upscope $end
$upscope $end
$scope module SimonDatapathTest $end
$scope module dpath $end
$scope module mem $end
$var reg 4 o \mem[50] [3:0] $end
$upscope $end
$upscope $end
$upscope $end
$scope module SimonDatapathTest $end
$scope module dpath $end
$scope module mem $end
$var reg 4 p \mem[51] [3:0] $end
$upscope $end
$upscope $end
$upscope $end
$scope module SimonDatapathTest $end
$scope module dpath $end
$scope module mem $end
$var reg 4 q \mem[52] [3:0] $end
$upscope $end
$upscope $end
$upscope $end
$scope module SimonDatapathTest $end
$scope module dpath $end
$scope module mem $end
$var reg 4 r \mem[53] [3:0] $end
$upscope $end
$upscope $end
$upscope $end
$scope module SimonDatapathTest $end
$scope module dpath $end
$scope module mem $end
$var reg 4 s \mem[54] [3:0] $end
$upscope $end
$upscope $end
$upscope $end
$scope module SimonDatapathTest $end
$scope module dpath $end
$scope module mem $end
$var reg 4 t \mem[55] [3:0] $end
$upscope $end
$upscope $end
$upscope $end
$scope module SimonDatapathTest $end
$scope module dpath $end
$scope module mem $end
$var reg 4 u \mem[56] [3:0] $end
$upscope $end
$upscope $end
$upscope $end
$scope module SimonDatapathTest $end
$scope module dpath $end
$scope module mem $end
$var reg 4 v \mem[57] [3:0] $end
$upscope $end
$upscope $end
$upscope $end
$scope module SimonDatapathTest $end
$scope module dpath $end
$scope module mem $end
$var reg 4 w \mem[58] [3:0] $end
$upscope $end
$upscope $end
$upscope $end
$scope module SimonDatapathTest $end
$scope module dpath $end
$scope module mem $end
$var reg 4 x \mem[59] [3:0] $end
$upscope $end
$upscope $end
$upscope $end
$scope module SimonDatapathTest $end
$scope module dpath $end
$scope module mem $end
$var reg 4 y \mem[60] [3:0] $end
$upscope $end
$upscope $end
$upscope $end
$scope module SimonDatapathTest $end
$scope module dpath $end
$scope module mem $end
$var reg 4 z \mem[61] [3:0] $end
$upscope $end
$upscope $end
$upscope $end
$scope module SimonDatapathTest $end
$scope module dpath $end
$scope module mem $end
$var reg 4 { \mem[62] [3:0] $end
$upscope $end
$upscope $end
$upscope $end
$scope module SimonDatapathTest $end
$scope module dpath $end
$scope module mem $end
$var reg 4 | \mem[63] [3:0] $end
$upscope $end
$upscope $end
$upscope $end
$enddefinitions $end
#0
$dumpvars
bx |
bx {
bx z
bx y
bx x
bx w
bx v
bx u
bx t
bx s
bx r
bx q
bx p
bx o
bx n
bx m
bx l
bx k
bx j
bx i
bx h
bx g
bx f
bx e
bx d
bx c
bx b
bx a
bx `
bx _
bx ^
bx ]
bx \
bx [
bx Z
bx Y
bx X
bx W
bx V
bx U
bx T
bx S
bx R
bx Q
bx P
bx O
bx N
bx M
bx L
bx K
bx J
bx I
bx H
bx G
bx F
bx E
bx D
bx C
bx B
bx A
bx @
bx ?
bx >
bx =
b0 <
bx ;
bx :
bx 9
bx 8
bx 7
bx 6
x5
x4
bx 3
02
b0 1
b0 0
b1000000 /
x.
x-
x,
x+
x*
b0 )
0(
x'
b0 &
0%
x$
x#
0"
bx !
$end
#10
1(
#30
1,
#50
1"
14
b0 =
b0 >
b0 ?
b0 @
b0 A
b0 B
b0 C
b0 D
b0 E
b0 F
b0 G
b0 H
b0 I
b0 J
b0 K
b0 L
b0 M
b0 N
b0 O
b0 P
b0 Q
b0 R
b0 S
b0 T
b0 U
b0 V
b0 W
b0 X
b0 Y
b0 Z
b0 [
b0 \
b0 ]
b0 ^
b0 _
b0 `
b0 a
b0 b
b0 c
b0 d
b0 e
b0 f
b0 g
b0 h
b0 i
b0 j
b0 k
b0 l
b0 m
b0 n
b0 o
b0 p
b0 q
b0 r
b0 s
b0 t
b0 u
b0 v
b0 w
b0 x
b0 y
b0 z
b0 {
b0 |
15
b0 8
b0 ;
1%
#60
0%
#80
0,
#100
02
b100 1
1"
b1111 )
b1111 0
b1111 <
#120
b1111 !
b1111 6
1"
1'
#140
1.
#160
1-
#180
1*
#200
1"
04
1#
1$
b1111 3
b1111 :
b0 7
b0 9
b1 8
b1 ;
b1111 =
1%
#210
0%
#250
1"
0'
#270
0#
14
b1111 >
b10 8
b10 ;
1%
#280
0%
#320
1"
1'
#340
02
b0 1
b0 !
b0 6
1"
0$
b0 )
b0 0
b0 <
#360
1#
04
b11 8
b11 ;
b0 ?
1%
#370
0%
#410
1"
b1111 !
b1111 6
0'
#430
0(
#450
1,
#470
0"
b0 !
b0 6
0#
14
b0 =
1$
b0 3
b0 :
b0 >
b0 ?
b0 @
b0 A
b0 B
b0 C
b0 D
b0 E
b0 F
b0 G
b0 H
b0 I
b0 J
b0 K
b0 L
b0 M
b0 N
b0 O
b0 P
b0 Q
b0 R
b0 S
b0 T
b0 U
b0 V
b0 W
b0 X
b0 Y
b0 Z
b0 [
b0 \
b0 ]
b0 ^
b0 _
b0 `
b0 a
b0 b
b0 c
b0 d
b0 e
b0 f
b0 g
b0 h
b0 i
b0 j
b0 k
b0 l
b0 m
b0 n
b0 o
b0 p
b0 q
b0 r
b0 s
b0 t
b0 u
b0 v
b0 w
b0 x
b0 y
b0 z
b0 {
b0 |
05
b0 8
b0 ;
1%
